{
    "bareme": [
        {
            "id": 1,
            "ancienneteSalarie": 0,
            "indemniteminimalemoinsde11": "0",
            "indemniteminimale11etplus": "0",
            "indemnitemaximale": "1"
        },
        {
            "id": 2,
            "ancienneteSalarie": 1,
            "indemniteminimalemoinsde11": "0,5",
            "indemniteminimale11etplus": "1",
            "indemnitemaximale": "2"
        },
        {
            "id": 3,
            "ancienneteSalarie": 2,
            "indemniteminimalemoinsde11": "0,5",
            "indemniteminimale11etplus": "3",
            "indemnitemaximale": "3,5"
        },
        {
            "id": 4,
            "ancienneteSalarie": 3,
            "indemniteminimalemoinsde11": "1",
            "indemniteminimale11etplus": "3",
            "indemnitemaximale": "4"
        },
        {
            "id": 5,
            "ancienneteSalarie": 4,
            "indemniteminimalemoinsde11": "1",
            "indemniteminimale11etplus": "3",
            "indemnitemaximale": "5"
        },
        {
            "id": 6,
            "ancienneteSalarie": 5,
            "indemniteminimalemoinsde11": "1,5",
            "indemniteminimale11etplus": "3",
            "indemnitemaximale": "6"
        },
        {
            "id": 7,
            "ancienneteSalarie": 6,
            "indemniteminimalemoinsde11": "1,5",
            "indemniteminimale11etplus": "3",
            "indemnitemaximale": "7"
        },
        {
            "id": 8,
            "ancienneteSalarie": 7,
            "indemniteminimalemoinsde11": "2",
            "indemniteminimale11etplus": "3",
            "indemnitemaximale": "8"
        },
        {
            "id": 9,
            "ancienneteSalarie": 8,
            "indemniteminimalemoinsde11": "2",
            "indemniteminimale11etplus": "3",
            "indemnitemaximale": "8"
        },
        {
            "id": 10,
            "ancienneteSalarie": 9,
            "indemniteminimalemoinsde11": "2,5",
            "indemniteminimale11etplus": "3",
            "indemnitemaximale": "9"
        },
        {
            "id": 11,
            "ancienneteSalarie": 10,
            "indemniteminimalemoinsde11": "2,5",
            "indemniteminimale11etplus": "3",
            "indemnitemaximale": "10"
        },
        {
            "id": 12,
            "ancienneteSalarie": 11,
            "indemniteminimalemoinsde11": "3",
            "indemniteminimale11etplus": "3",
            "indemnitemaximale": "10,5"
        },
        {
            "id": 13,
            "ancienneteSalarie": 12,
            "indemniteminimalemoinsde11": "3",
            "indemniteminimale11etplus": "3",
            "indemnitemaximale": "11"
        },
        {
            "id": 14,
            "ancienneteSalarie": 13,
            "indemniteminimalemoinsde11": "3",
            "indemniteminimale11etplus": "3",
            "indemnitemaximale": "11,5"
        },
        {
            "id": 15,
            "ancienneteSalarie": 14,
            "indemniteminimalemoinsde11": "3",
            "indemniteminimale11etplus": "3",
            "indemnitemaximale": "12"
        },
        {
            "id": 16,
            "ancienneteSalarie": 15,
            "indemniteminimalemoinsde11": "3",
            "indemniteminimale11etplus": "3",
            "indemnitemaximale": "13"
        },
        {
            "id": 17,
            "ancienneteSalarie": 16,
            "indemniteminimalemoinsde11": "3",
            "indemniteminimale11etplus": "3",
            "indemnitemaximale": "13,5"
        },
        {
            "id": 18,
            "ancienneteSalarie": 17,
            "indemniteminimalemoinsde11": "3",
            "indemniteminimale11etplus": "3",
            "indemnitemaximale": "14"
        },
        {
            "id": 19,
            "ancienneteSalarie": 18,
            "indemniteminimalemoinsde11": "3",
            "indemniteminimale11etplus": "3",
            "indemnitemaximale": "14,5"
        },
        {
            "id": 20,
            "ancienneteSalarie": 19,
            "indemniteminimalemoinsde11": "3",
            "indemniteminimale11etplus": "3",
            "indemnitemaximale": "15"
        },
        {
            "id": 21,
            "ancienneteSalarie": 20,
            "indemniteminimalemoinsde11": "3",
            "indemniteminimale11etplus": "3",
            "indemnitemaximale": "15,5"
        },
        {
            "id": 22,
            "ancienneteSalarie": 21,
            "indemniteminimalemoinsde11": "3",
            "indemniteminimale11etplus": "3",
            "indemnitemaximale": "16"
        },
        {
            "id": 23,
            "ancienneteSalarie": 22,
            "indemniteminimalemoinsde11": "3",
            "indemniteminimale11etplus": "3",
            "indemnitemaximale": "16,5"
        },
        {
            "id": 24,
            "ancienneteSalarie": 23,
            "indemniteminimalemoinsde11": "3",
            "indemniteminimale11etplus": "3",
            "indemnitemaximale": "17"
        },
        {
            "id": 25,
            "ancienneteSalarie": 24,
            "indemniteminimalemoinsde11": "3",
            "indemniteminimale11etplus": "3",
            "indemnitemaximale": "17,5"
        },
        {
            "id": 26,
            "ancienneteSalarie": 25,
            "indemniteminimalemoinsde11": "3",
            "indemniteminimale11etplus": "3",
            "indemnitemaximale": "18"
        },
        {
            "id": 27,
            "ancienneteSalarie": 26,
            "indemniteminimalemoinsde11": "3",
            "indemniteminimale11etplus": "3",
            "indemnitemaximale": "18,5"
        },
        {
            "id": 28,
            "ancienneteSalarie": 27,
            "indemniteminimalemoinsde11": "3",
            "indemniteminimale11etplus": "3",
            "indemnitemaximale": "19"
        },
        {
            "id": 29,
            "ancienneteSalarie": 28,
            "indemniteminimalemoinsde11": "3",
            "indemniteminimale11etplus": "3",
            "indemnitemaximale": "19,5"
        },
        {
            "id": 30,
            "ancienneteSalarie": 29,
            "indemniteminimalemoinsde11": "3",
            "indemniteminimale11etplus": "3",
            "indemnitemaximale": "20"
        },
        {
            "id": 31,
            "ancienneteSalarie": 30,
            "indemniteminimalemoinsde11": "3",
            "indemniteminimale11etplus": "3",
            "indemnitemaximale": "20"
        },
        {
            "id": 32,
            "ancienneteSalarie": 31,
            "indemniteminimalemoinsde11": "3",
            "indemniteminimale11etplus": "3",
            "indemnitemaximale": "20"
        },
        {
            "id": 33,
            "ancienneteSalarie": 32,
            "indemniteminimalemoinsde11": "3",
            "indemniteminimale11etplus": "3",
            "indemnitemaximale": "20"
        },
        {
            "id": 34,
            "ancienneteSalarie": 33,
            "indemniteminimalemoinsde11": "3",
            "indemniteminimale11etplus": "3",
            "indemnitemaximale": "20"
        },
        {
            "id": 35,
            "ancienneteSalarie": 34,
            "indemniteminimalemoinsde11": "3",
            "indemniteminimale11etplus": "3",
            "indemnitemaximale": "20"
        },
        {
            "id": 36,
            "ancienneteSalarie": 35,
            "indemniteminimalemoinsde11": "3",
            "indemniteminimale11etplus": "3",
            "indemnitemaximale": "20"
        },
        {
            "id": 37,
            "ancienneteSalarie": 36,
            "indemniteminimalemoinsde11": "3",
            "indemniteminimale11etplus": "3",
            "indemnitemaximale": "20"
        },
        {
            "id": 38,
            "ancienneteSalarie": 37,
            "indemniteminimalemoinsde11": "3",
            "indemniteminimale11etplus": "3",
            "indemnitemaximale": "20"
        },
        {
            "id": 39,
            "ancienneteSalarie": 38,
            "indemniteminimalemoinsde11": "3",
            "indemniteminimale11etplus": "3",
            "indemnitemaximale": "20"
        },
        {
            "id": 40,
            "ancienneteSalarie": 39,
            "indemniteminimalemoinsde11": "3",
            "indemniteminimale11etplus": "3",
            "indemnitemaximale": "20"
        },
        {
            "id": 41,
            "ancienneteSalarie": 40,
            "indemniteminimalemoinsde11": "3",
            "indemniteminimale11etplus": "3",
            "indemnitemaximale": "20"
        },
        {
            "id": 42,
            "ancienneteSalarie": 41,
            "indemniteminimalemoinsde11": "3",
            "indemniteminimale11etplus": "3",
            "indemnitemaximale": "20"
        },
        {
            "id": 43,
            "ancienneteSalarie": 42,
            "indemniteminimalemoinsde11": "3",
            "indemniteminimale11etplus": "3",
            "indemnitemaximale": "20"
        },
        {
            "id": 44,
            "ancienneteSalarie": 43,
            "indemniteminimalemoinsde11": "3",
            "indemniteminimale11etplus": "3",
            "indemnitemaximale": "20"
        },
        {
            "id": 45,
            "ancienneteSalarie": 44,
            "indemniteminimalemoinsde11": "3",
            "indemniteminimale11etplus": "3",
            "indemnitemaximale": "20"
        },
        {
            "id": 46,
            "ancienneteSalarie": 45,
            "indemniteminimalemoinsde11": "3",
            "indemniteminimale11etplus": "3",
            "indemnitemaximale": "20"
        },
        {
            "id": 47,
            "ancienneteSalarie": 46,
            "indemniteminimalemoinsde11": "3",
            "indemniteminimale11etplus": "3",
            "indemnitemaximale": "20"
        },
        {
            "id": 48,
            "ancienneteSalarie": 47,
            "indemniteminimalemoinsde11": "3",
            "indemniteminimale11etplus": "3",
            "indemnitemaximale": "20"
        },
        {
            "id": 49,
            "ancienneteSalarie": 48,
            "indemniteminimalemoinsde11": "3",
            "indemniteminimale11etplus": "3",
            "indemnitemaximale": "20"
        },
        {
            "id": 50,
            "ancienneteSalarie": 49,
            "indemniteminimalemoinsde11": "3",
            "indemniteminimale11etplus": "3",
            "indemnitemaximale": "20"
        },
        {
            "id": 51,
            "ancienneteSalarie": 50,
            "indemniteminimalemoinsde11": "3",
            "indemniteminimale11etplus": "3",
            "indemnitemaximale": "20"
        },
        {
            "id": 52,
            "ancienneteSalarie": 51,
            "indemniteminimalemoinsde11": "3",
            "indemniteminimale11etplus": "3",
            "indemnitemaximale": "20"
        },
        {
            "id": 53,
            "ancienneteSalarie": 52,
            "indemniteminimalemoinsde11": "3",
            "indemniteminimale11etplus": "3",
            "indemnitemaximale": "20"
        },
        {
            "id": 54,
            "ancienneteSalarie": 53,
            "indemniteminimalemoinsde11": "3",
            "indemniteminimale11etplus": "3",
            "indemnitemaximale": "20"
        },
        {
            "id": 55,
            "ancienneteSalarie": 54,
            "indemniteminimalemoinsde11": "3",
            "indemniteminimale11etplus": "3",
            "indemnitemaximale": "20"
        },
        {
            "id": 56,
            "ancienneteSalarie": 55,
            "indemniteminimalemoinsde11": "3",
            "indemniteminimale11etplus": "3",
            "indemnitemaximale": "20"
        },
        {
            "id": 57,
            "ancienneteSalarie": 56,
            "indemniteminimalemoinsde11": "3",
            "indemniteminimale11etplus": "3",
            "indemnitemaximale": "20"
        },
        {
            "id": 58,
            "ancienneteSalarie": 57,
            "indemniteminimalemoinsde11": "3",
            "indemniteminimale11etplus": "3",
            "indemnitemaximale": "20"
        },
        {
            "id": 59,
            "ancienneteSalarie": 58,
            "indemniteminimalemoinsde11": "3",
            "indemniteminimale11etplus": "3",
            "indemnitemaximale": "20"
        },
        {
            "id": 60,
            "ancienneteSalarie": 59,
            "indemniteminimalemoinsde11": "3",
            "indemniteminimale11etplus": "3",
            "indemnitemaximale": "20"
        },
        {
            "id": 61,
            "ancienneteSalarie": 60,
            "indemniteminimalemoinsde11": "3",
            "indemniteminimale11etplus": "3",
            "indemnitemaximale": "20"
        },
        {
            "id": 62,
            "ancienneteSalarie": 61,
            "indemniteminimalemoinsde11": "3",
            "indemniteminimale11etplus": "3",
            "indemnitemaximale": "20"
        },
        {
            "id": 63,
            "ancienneteSalarie": 62,
            "indemniteminimalemoinsde11": "3",
            "indemniteminimale11etplus": "3",
            "indemnitemaximale": "20"
        },
        {
            "id": 64,
            "ancienneteSalarie": 63,
            "indemniteminimalemoinsde11": "3",
            "indemniteminimale11etplus": "3",
            "indemnitemaximale": "20"
        },
        {
            "id": 65,
            "ancienneteSalarie": 64,
            "indemniteminimalemoinsde11": "3",
            "indemniteminimale11etplus": "3",
            "indemnitemaximale": "20"
        },
        {
            "id": 66,
            "ancienneteSalarie": 65,
            "indemniteminimalemoinsde11": "3",
            "indemniteminimale11etplus": "3",
            "indemnitemaximale": "20"
        },
        {
            "id": 67,
            "ancienneteSalarie": 66,
            "indemniteminimalemoinsde11": "3",
            "indemniteminimale11etplus": "3",
            "indemnitemaximale": "20"
        },
        {
            "id": 68,
            "ancienneteSalarie": 67,
            "indemniteminimalemoinsde11": "3",
            "indemniteminimale11etplus": "3",
            "indemnitemaximale": "20"
        },
        {
            "id": 69,
            "ancienneteSalarie": 68,
            "indemniteminimalemoinsde11": "3",
            "indemniteminimale11etplus": "3",
            "indemnitemaximale": "20"
        },
        {
            "id": 70,
            "ancienneteSalarie": 69,
            "indemniteminimalemoinsde11": "3",
            "indemniteminimale11etplus": "3",
            "indemnitemaximale": "20"
        },
        {
            "id": 71,
            "ancienneteSalarie": 70,
            "indemniteminimalemoinsde11": "3",
            "indemniteminimale11etplus": "3",
            "indemnitemaximale": "20"
        },
        {
            "id": 72,
            "ancienneteSalarie": 71,
            "indemniteminimalemoinsde11": "3",
            "indemniteminimale11etplus": "3",
            "indemnitemaximale": "20"
        },
        {
            "id": 73,
            "ancienneteSalarie": 72,
            "indemniteminimalemoinsde11": "3",
            "indemniteminimale11etplus": "3",
            "indemnitemaximale": "20"
        },
        {
            "id": 74,
            "ancienneteSalarie": 73,
            "indemniteminimalemoinsde11": "3",
            "indemniteminimale11etplus": "3",
            "indemnitemaximale": "20"
        },
        {
            "id": 75,
            "ancienneteSalarie": 74,
            "indemniteminimalemoinsde11": "3",
            "indemniteminimale11etplus": "3",
            "indemnitemaximale": "20"
        },
        {
            "id": 76,
            "ancienneteSalarie": 75,
            "indemniteminimalemoinsde11": "3",
            "indemniteminimale11etplus": "3",
            "indemnitemaximale": "20"
        },
        {
            "id": 77,
            "ancienneteSalarie": 76,
            "indemniteminimalemoinsde11": "3",
            "indemniteminimale11etplus": "3",
            "indemnitemaximale": "20"
        },
        {
            "id": 78,
            "ancienneteSalarie": 77,
            "indemniteminimalemoinsde11": "3",
            "indemniteminimale11etplus": "3",
            "indemnitemaximale": "20"
        },
        {
            "id": 79,
            "ancienneteSalarie": 78,
            "indemniteminimalemoinsde11": "3",
            "indemniteminimale11etplus": "3",
            "indemnitemaximale": "20"
        },
        {
            "id": 80,
            "ancienneteSalarie": 79,
            "indemniteminimalemoinsde11": "3",
            "indemniteminimale11etplus": "3",
            "indemnitemaximale": "20"
        },
        {
            "id": 81,
            "ancienneteSalarie": 80,
            "indemniteminimalemoinsde11": "3",
            "indemniteminimale11etplus": "3",
            "indemnitemaximale": "20"
        }
    ]
}