{
    "Situation_Familiale": [
        {
            "id": 1,
            "Situation_familiale": "Célibataire",
            "id_situation": 1
        },
        {
            "id": 2,
            "Situation_familiale": "Marié, votre mari ou votre femme fait aussi un dossier de naturalisation",
            "Doc_Famille": "Copie intégrale de l’acte de mariage",
            "id_situation": 2
        },
        {
            "id": 3,
            "Situation_familiale": "Marié, votre mari ou votre femme fait aussi un dossier de naturalisation",
            "Doc_Famille": "Copie de l’autorisation d’entrée en France de votre mari\/femme",
            "id_situation": 2
        },
        {
            "id": 4,
            "Situation_familiale": "Marié, votre mari ou votre femme fait aussi un dossier de naturalisation",
            "Doc_Famille": "Document justifiant l’identité de votre mari\/femme si son identité est incomplète dans l’acte de mariage",
            "id_situation": 2
        },
        {
            "id": 5,
            "Situation_familiale": "Marié, mais votre mari ou votre femme ne fait pas de demande de naturalisation",
            "Doc_Famille": "Copie intégrale de l’acte de mariage",
            "id_situation": 3
        },
        {
            "id": 6,
            "Situation_familiale": "Marié, mais votre mari ou votre femme ne fait pas de demande de naturalisation",
            "Doc_Famille": "Copie de l’autorisation d’entrée en France de votre mari\/femme",
            "id_situation": 3
        },
        {
            "id": 7,
            "Situation_familiale": "Marié, mais votre mari ou votre femme ne fait pas de demande de naturalisation",
            "Doc_Famille": "Document justifiant l’identité de votre mari\/femme si son identité est incomplète dans l’acte de mariage",
            "id_situation": 3
        },
        {
            "id": 8,
            "Situation_familiale": "Marié, mais votre mari ou votre femme ne fait pas de demande de naturalisation",
            "Doc_Famille": "Copie du titre de séjour valide de votre mari ou de votre femme (recto-verso)",
            "id_situation": 3
        },
        {
            "id": 9,
            "Situation_familiale": "Marié plusieurs fois, votre mari ou votre femme fait aussi un dossier de naturalisation",
            "Doc_Famille": "Copie intégrale de l’acte de mariage",
            "id_situation": 4
        },
        {
            "id": 10,
            "Situation_familiale": "Marié plusieurs fois, votre mari ou votre femme fait aussi un dossier de naturalisation",
            "Doc_Famille": "Copie de l’autorisation d’entrée en France de votre mari\/femme",
            "id_situation": 4
        },
        {
            "id": 11,
            "Situation_familiale": "Marié plusieurs fois, votre mari ou votre femme fait aussi un dossier de naturalisation",
            "Doc_Famille": "Document justifiant l’identité de votre mari\/femme si son identité est incomplète dans l’acte de mariage",
            "id_situation": 4
        },
        {
            "id": 12,
            "Situation_familiale": "Marié plusieurs fois, votre mari ou votre femme fait aussi un dossier de naturalisation",
            "Doc_Famille": "Copies intégrales des actes + preuves de leur dissolution",
            "id_situation": 4
        },
        {
            "id": 13,
            "Situation_familiale": "Marié plusieurs fois, votre mari ou votre femme ne fait pas de dossier de naturalisation",
            "Doc_Famille": "Copie intégrale de l’acte de mariage",
            "id_situation": 4
        },
        {
            "id": 14,
            "Situation_familiale": "Marié plusieurs fois, votre mari ou votre femme ne fait pas de dossier de naturalisation",
            "Doc_Famille": "Copie de l’autorisation d’entrée en France de votre mari\/femme",
            "id_situation": 4
        },
        {
            "id": 15,
            "Situation_familiale": "Marié plusieurs fois, votre mari ou votre femme ne fait pas de dossier de naturalisation",
            "Doc_Famille": "Document justifiant l’identité de votre mari\/femme si son identité est incomplète dans l’acte de mariage",
            "id_situation": 4
        },
        {
            "id": 16,
            "Situation_familiale": "Marié plusieurs fois, votre mari ou votre femme ne fait pas de dossier de naturalisation",
            "Doc_Famille": "Copie du titre de séjour valide de votre mari ou de votre femme (recto-verso)",
            "id_situation": 4
        },
        {
            "id": 17,
            "Situation_familiale": "Marié plusieurs fois, votre mari ou votre femme ne fait pas de dossier de naturalisation",
            "Doc_Famille": "Copies intégrales des actes + preuves de leur dissolution",
            "id_situation": 4
        },
        {
            "id": 18,
            "Situation_familiale": "Pacsé",
            "Doc_Famille": "Récépissé d’enregistrement du Pacs délivré par le tribunal",
            "id_situation": 5
        },
        {
            "id": 19,
            "Situation_familiale": "Concubin (union libre)",
            "Doc_Famille": "Copie de son titre de séjour valide (recto-verso)",
            "id_situation": 6
        },
        {
            "id": 20,
            "Situation_familiale": "Divorcé",
            "Doc_Famille": "Décision de divorce ou acte de répudiation + preuve du caractère définitif du divorce ou répudiation (originaux)",
            "id_situation": 7
        },
        {
            "id": 21,
            "Situation_familiale": "Veuf",
            "Doc_Famille": "Copie intégrale de l’acte de décès de votre mari\/femme",
            "id_situation": 8
        },
        {
            "id": 22,
            "Situation_familiale": "Séparé",
            "Doc_Famille": "Décision de séparation ou Ordonnance de non-conciliation",
            "id_situation": 9
        }
    ],
    "Enfants": [
        {
            "id": 1,
            "Enfant": "Majeur"
        },
        {
            "id": 2,
            "Enfant": "Mineur",
            "Doc_Enfant": "Copie intégrale de l’acte de naissance de chaque enfant"
        },
        {
            "id": 3,
            "Enfant": "Adopté",
            "Doc_Enfant": "Jugement d’adoption"
        },
        {
            "id": 4,
            "Enfant": "Français",
            "Doc_Enfant": "Certificat de nationalité française de l’enfant ou acte de naissance l’indiquant "
        },
        {
            "id": 5,
            "Enfant": "Non-français",
            "Doc_Enfant": "Décision l’autorisant à entrer en France"
        },
        {
            "id": 6,
            "Enfant": "Scolarisé",
            "Doc_Enfant": "Certificat de scolarité de chaque enfant"
        },
        {
            "id": 7,
            "Enfant": "Non scolarisé",
            "Doc_Enfant": "Document justifiant que l’enfant habite chez vous"
        }
    ],
    "Domicile": [
        {
            "id": 1,
            "Domicile": "Locataire",
            "Doc_Domicile": "Copie du contrat de location",
            "Id_Domicile": 1
        },
        {
            "id": 2,
            "Domicile": "Locataire",
            "Doc_Domicile": "3 dernières quittances de loyer",
            "Id_Domicile": 1
        },
        {
            "id": 3,
            "Domicile": "Locataire",
            "Doc_Domicile": "Dernière facture de téléphone ou d'électricité",
            "Id_Domicile": 1
        },
        {
            "id": 4,
            "Domicile": "Propriétaire",
            "Doc_Domicile": "Acte de propriété",
            "Id_Domicile": 2
        },
        {
            "id": 5,
            "Domicile": "Hébergé",
            "Doc_Domicile": "Attestation d’hébergement",
            "Id_Domicile": 3
        },
        {
            "id": 6,
            "Domicile": "Hébergé",
            "Doc_Domicile": "Copie justifiant l’identité de l’hébergeant (CNI, passeport…)",
            "Id_Domicile": 3
        }
    ],
    "Situation_Professionnelle": [
        {
            "id": 1,
            "Situation_Professionnelle": "Salarié",
            "Doc_Pro": "Certificat de travail (si possible des 3 dernières années)",
            "Id_Pro": 1
        },
        {
            "id": 2,
            "Situation_Professionnelle": "Salarié",
            "Doc_Pro": "Contrat de travail indiquant le salaire, la date d’entrée en fonction et l’emploi",
            "Id_Pro": 1
        },
        {
            "id": 3,
            "Situation_Professionnelle": "Salarié",
            "Doc_Pro": "3 derniers bulletins de paye",
            "Id_Pro": 1
        },
        {
            "id": 4,
            "Situation_Professionnelle": "Salarié",
            "Doc_Pro": "Bulletins de paye de novembre et décembre des 3 dernières années",
            "Id_Pro": 1
        },
        {
            "id": 5,
            "Situation_Professionnelle": "Profession libérale",
            "Doc_Pro": "Copie de l’inscription à l’ordre professionnel",
            "Id_Pro": 2
        },
        {
            "id": 6,
            "Situation_Professionnelle": "Profession libérale",
            "Doc_Pro": "Justificatif des ressources de 3 dernières années",
            "Id_Pro": 2
        },
        {
            "id": 7,
            "Situation_Professionnelle": "Artisan, commerçant, agriculteur, Gérant",
            "Doc_Pro": "Extrait de l’immatriculation au Registre du commerce ou au Registre des métiers",
            "Id_Pro": 3
        },
        {
            "id": 8,
            "Situation_Professionnelle": "Artisan, commerçant, agriculteur, Gérant",
            "Doc_Pro": "Bilans financiers des 3 dernières années",
            "Id_Pro": 3
        },
        {
            "id": 9,
            "Situation_Professionnelle": "Artisan, commerçant, agriculteur, Gérant",
            "Doc_Pro": "Statuts de la société (pour les associés ou les dirigeants)",
            "Id_Pro": 3
        },
        {
            "id": 10,
            "Situation_Professionnelle": "Demandeur d’emploi",
            "Doc_Pro": "Justificatif d’inscription à Pôle Emploi",
            "Id_Pro": 4
        },
        {
            "id": 11,
            "Situation_Professionnelle": "Demandeur d’emploi",
            "Doc_Pro": "3 derniers bordereaux de versement d’indemnités",
            "Id_Pro": 4
        },
        {
            "id": 12,
            "Situation_Professionnelle": "Demandeur d’emploi",
            "Doc_Pro": "Justificatifs d’activité professionnelles des 3 dernières années",
            "Id_Pro": 4
        },
        {
            "id": 13,
            "Situation_Professionnelle": "Retraité",
            "Doc_Pro": "Titre de pension",
            "Id_Pro": 5
        },
        {
            "id": 14,
            "Situation_Professionnelle": "Retraité",
            "Doc_Pro": "Dernier bordereau de versement de pension",
            "Id_Pro": 5
        },
        {
            "id": 15,
            "Situation_Professionnelle": "Stagiaire en formation professionnelle",
            "Doc_Pro": "Attestation de stage avec les dates de début et de fin de stage",
            "Id_Pro": 6
        },
        {
            "id": 16,
            "Situation_Professionnelle": "Stagiaire en formation professionnelle",
            "Doc_Pro": "Dernier bulletin de rémunération",
            "Id_Pro": 6
        },
        {
            "id": 17,
            "Situation_Professionnelle": "Stagiaire en formation professionnelle",
            "Doc_Pro": "Justificatifs d’activités professionnelles des 3 dernières années",
            "Id_Pro": 6
        },
        {
            "id": 18,
            "Situation_Professionnelle": "Lycéen ou étudiant Non boursier",
            "Doc_Pro": "Certificat de scolarité ou carte d’inscription",
            "Id_Pro": 7
        },
        {
            "id": 19,
            "Situation_Professionnelle": "Lycéen ou étudiant Non boursier",
            "Doc_Pro": "Justificatif de diplômes français",
            "Id_Pro": 7
        },
        {
            "id": 20,
            "Situation_Professionnelle": "Lycéen ou étudiant boursier",
            "Doc_Pro": "Certificat de scolarité ou carte d’inscription",
            "Id_Pro": 8
        },
        {
            "id": 21,
            "Situation_Professionnelle": "Lycéen ou étudiant boursier",
            "Doc_Pro": "Justificatif de diplômes français",
            "Id_Pro": 8
        },
        {
            "id": 22,
            "Situation_Professionnelle": "Lycéen ou étudiant boursier",
            "Doc_Pro": "Attestation indiquant le montant de la bourse",
            "Id_Pro": 8
        },
        {
            "id": 23,
            "Situation_Professionnelle": "Contractuel de l’enseignement",
            "Doc_Pro": "Justificatifs des contrats des 3 dernières années",
            "Id_Pro": 9
        },
        {
            "id": 24,
            "Situation_Professionnelle": "Autre",
            "Id_Pro": 10
        }
    ],
    "Commun": [
        {
            "id": 1,
            "Toute_categorie": "Toute situation",
            "Doc_Commun": "Formulaire cerfa n°12753 rempli, daté et signé (en 2 exemplaires)"
        },
        {
            "id": 2,
            "Toute_categorie": "Toute situation",
            "Doc_Commun": "2 photos d'identité (format 35 x 45 mm) tête nue. Indiquez au dos votre nom, votre prénom et votre date de naissance"
        },
        {
            "id": 3,
            "Toute_categorie": "Toute situation",
            "Doc_Commun": "Timbre fiscal de 55 €"
        },
        {
            "id": 4,
            "Toute_categorie": "Toute situation",
            "Doc_Commun": "Copie intégrale de l'acte de naissance. Il doit indiquer : nom, prénom, date et lieu de naissance de votre père et votre mère. Demandez-le à l'officier d'état civil de votre lieu de naissance"
        },
        {
            "id": 5,
            "Toute_categorie": "Toute situation",
            "Doc_Commun": "Documents justifiant date, lieu de naissance et date de mariage (s’ils sont mariés) de votre père et votre mère"
        },
        {
            "id": 6,
            "Toute_categorie": "Toute situation",
            "Doc_Commun": "Document(s) justifiant de votre nationalité d’origine (par exemple, copie du passeport)"
        },
        {
            "id": 7,
            "Toute_categorie": "Toute situation",
            "Doc_Commun": "Copie de votre titre de séjour valide (recto-verso)"
        },
        {
            "id": 8,
            "Toute_categorie": "Toute situation",
            "Doc_Commun": "Si vous avez modifié votre nom, une preuve de cette modification"
        },
        {
            "id": 9,
            "Toute_categorie": "Toute situation",
            "Doc_Commun": "Avis d’imposition ou avis de situation déclarative à l'impôt sur le revenu (Asdir, remplaçant l’avis de non-imposition)"
        },
        {
            "id": 10,
            "Toute_categorie": "Toute situation",
            "Doc_Commun": "Bordereau de situation fiscale P237 portant sur les 3 dernières années"
        },
        {
            "id": 11,
            "Toute_categorie": "Toute situation",
            "Doc_Commun": "État des services pour les anciens combattants, les légionnaires, les décorations et les citations obtenues"
        }
    ],
    "Autres_Ressources": [
        {
            "id": 1,
            "Ressources": "Prestations sociales",
            "Doc_Ressources": "Dernier bordereau de versement des allocations sociales",
            "Id_Ress": 1
        },
        {
            "id": 2,
            "Ressources": "Revenus mobiliers ou immobiliers de France",
            "Doc_Ressources": "Déclaration datées et signée précisant la nature, l’origine et l’évaluation de votre patrimoine",
            "Id_Ress": 2
        },
        {
            "id": 3,
            "Ressources": "Revenus mobiliers ou immobiliers de France",
            "Doc_Ressources": "Attestation bancaire précisant le montant des revenus de votre patrimoine",
            "Id_Ress": 2
        },
        {
            "id": 4,
            "Ressources": "Revenus mobiliers ou immobiliers de l’étranger",
            "Doc_Ressources": "Déclaration datées et signée précisant la nature, l’origine et l’évaluation de votre patrimoine",
            "Id_Ress": 3
        },
        {
            "id": 5,
            "Ressources": "Revenus mobiliers ou immobiliers de l’étranger",
            "Doc_Ressources": "Attestation bancaire précisant le montant des revenus de votre patrimoine",
            "Id_Ress": 3
        },
        {
            "id": 6,
            "Ressources": "Revenus mobiliers ou immobiliers de l’étranger",
            "Doc_Ressources": "Attestation bancaire précisant le montant et la périodicité des versements de ces revenus",
            "Id_Ress": 3
        },
        {
            "id": 7,
            "Ressources": "À la charge de vos parents",
            "Doc_Ressources": "Copie de leur titre de séjour (Recto\/verso)",
            "Id_Ress": 4
        },
        {
            "id": 8,
            "Ressources": "À la charge de vos parents",
            "Doc_Ressources": "Avis d’imposition ou Avis de situation déclarative à l'impôt sur le revenu (Asdir, remplaçant l’avis de non-imposition) de vos parents",
            "Id_Ress": 4
        },
        {
            "id": 9,
            "Ressources": "À la charge de vos parents",
            "Doc_Ressources": "Justificatif des versements si vos parents ne résident pas en France",
            "Id_Ress": 4
        },
        {
            "id": 10,
            "Ressources": "Pension ou allocation en raison d’un handicap ou d’une invalidité",
            "Doc_Ressources": "Décision de la Commission des droits et de l'autonomie des personnes handicapées (CDAPH) en cours de validité mentionnant le taux d'invalidité",
            "Id_Ress": 5
        },
        {
            "id": 11,
            "Ressources": "Pension ou allocation en raison d’un handicap ou d’une invalidité",
            "Doc_Ressources": "Carte d'invalidité",
            "Id_Ress": 5
        },
        {
            "id": 12,
            "Ressources": "Pension ou allocation en raison d’un handicap ou d’une invalidité",
            "Doc_Ressources": "Bordereau de versement d'une pension ou d'une allocation d'invalidité",
            "Id_Ress": 5
        },
        {
            "id": 13,
            "Ressources": "Pension ou allocation en raison d’un handicap ou d’une invalidité",
            "Doc_Ressources": "Attestation de travail en structure de travail protégé (si vous y travaillez)",
            "Id_Ress": 5
        }
    ],
    "Pays_Francophone": [
        {
            "id": 1,
            "Pays": "Afghanistan ",
            "Francophone": "Non"
        },
        {
            "id": 2,
            "Pays": "Afrique du Sud ",
            "Francophone": "Non"
        },
        {
            "id": 3,
            "Pays": "Albanie ",
            "Francophone": "Non"
        },
        {
            "id": 4,
            "Pays": "Algérie ",
            "Francophone": "Oui"
        },
        {
            "id": 5,
            "Pays": "Allemagne ",
            "Francophone": "Non"
        },
        {
            "id": 6,
            "Pays": "Andorre ",
            "Francophone": "Non"
        },
        {
            "id": 7,
            "Pays": "Angola ",
            "Francophone": "Non"
        },
        {
            "id": 8,
            "Pays": "Antigua-et-Barbuda",
            "Francophone": "Non"
        },
        {
            "id": 9,
            "Pays": "Arabie saoudite ",
            "Francophone": "Non"
        },
        {
            "id": 10,
            "Pays": "Argentine ",
            "Francophone": "Non"
        },
        {
            "id": 11,
            "Pays": "Arménie ",
            "Francophone": "Non"
        },
        {
            "id": 12,
            "Pays": "Australie ",
            "Francophone": "Non"
        },
        {
            "id": 13,
            "Pays": "Autriche ",
            "Francophone": "Non"
        },
        {
            "id": 14,
            "Pays": "Azerbaïdjan ",
            "Francophone": "Non"
        },
        {
            "id": 15,
            "Pays": "Bahamas ",
            "Francophone": "Non"
        },
        {
            "id": 16,
            "Pays": "Bahreïn",
            "Francophone": "Non"
        },
        {
            "id": 17,
            "Pays": "Bangladesh ",
            "Francophone": "Non"
        },
        {
            "id": 18,
            "Pays": "Barbade ",
            "Francophone": "Non"
        },
        {
            "id": 19,
            "Pays": "Belgique ",
            "Francophone": "Oui"
        },
        {
            "id": 20,
            "Pays": "Belize ",
            "Francophone": "Non"
        },
        {
            "id": 21,
            "Pays": "Bénin ",
            "Francophone": "Oui"
        },
        {
            "id": 22,
            "Pays": "Bhoutan ",
            "Francophone": "Non"
        },
        {
            "id": 23,
            "Pays": "Biélorussie ",
            "Francophone": "Non"
        },
        {
            "id": 24,
            "Pays": "Birmanie ",
            "Francophone": "Non"
        },
        {
            "id": 25,
            "Pays": "Bolivie ",
            "Francophone": "Non"
        },
        {
            "id": 26,
            "Pays": "Bosnie-Herzégovine ",
            "Francophone": "Non"
        },
        {
            "id": 27,
            "Pays": "Botswana ",
            "Francophone": "Non"
        },
        {
            "id": 28,
            "Pays": "Brésil ",
            "Francophone": "Non"
        },
        {
            "id": 29,
            "Pays": "Brunei ",
            "Francophone": "Non"
        },
        {
            "id": 30,
            "Pays": "Bulgarie ",
            "Francophone": "Non"
        },
        {
            "id": 31,
            "Pays": "Burkina Faso",
            "Francophone": "Oui"
        },
        {
            "id": 32,
            "Pays": "Burundi ",
            "Francophone": "Oui"
        },
        {
            "id": 33,
            "Pays": "Cambodge ",
            "Francophone": "Non"
        },
        {
            "id": 34,
            "Pays": "Cameroun ",
            "Francophone": "Oui"
        },
        {
            "id": 35,
            "Pays": "Canada ",
            "Francophone": "Oui"
        },
        {
            "id": 36,
            "Pays": "Cap-Vert ",
            "Francophone": "Non"
        },
        {
            "id": 37,
            "Pays": "Centrafrique ",
            "Francophone": "Oui"
        },
        {
            "id": 38,
            "Pays": "Chili ",
            "Francophone": "Non"
        },
        {
            "id": 39,
            "Pays": "Chine ",
            "Francophone": "Non"
        },
        {
            "id": 40,
            "Pays": "Chypre",
            "Francophone": "Non"
        },
        {
            "id": 41,
            "Pays": "Colombie ",
            "Francophone": "Non"
        },
        {
            "id": 42,
            "Pays": "Comores ",
            "Francophone": "Oui"
        },
        {
            "id": 43,
            "Pays": "Congo ",
            "Francophone": "Oui"
        },
        {
            "id": 44,
            "Pays": "Congo (République démocratique du)",
            "Francophone": "Oui"
        },
        {
            "id": 45,
            "Pays": "Corée du Nord ",
            "Francophone": "Non"
        },
        {
            "id": 46,
            "Pays": "Corée du Sud ",
            "Francophone": "Non"
        },
        {
            "id": 47,
            "Pays": "Costa Rica ",
            "Francophone": "Non"
        },
        {
            "id": 48,
            "Pays": "Côte d'Ivoire ",
            "Francophone": "Oui"
        },
        {
            "id": 49,
            "Pays": "Croatie ",
            "Francophone": "Non"
        },
        {
            "id": 50,
            "Pays": "Cuba",
            "Francophone": "Non"
        },
        {
            "id": 51,
            "Pays": "Danemark ",
            "Francophone": "Non"
        },
        {
            "id": 52,
            "Pays": "Djibouti",
            "Francophone": "Oui"
        },
        {
            "id": 53,
            "Pays": "République Dominicaine",
            "Francophone": "Non"
        },
        {
            "id": 54,
            "Pays": "Dominique ",
            "Francophone": "Non"
        },
        {
            "id": 55,
            "Pays": "Égypte ",
            "Francophone": "Non"
        },
        {
            "id": 56,
            "Pays": "Émirats arabes unis ",
            "Francophone": "Non"
        },
        {
            "id": 57,
            "Pays": "Équateur ",
            "Francophone": "Non"
        },
        {
            "id": 58,
            "Pays": "Érythrée ",
            "Francophone": "Non"
        },
        {
            "id": 59,
            "Pays": "Espagne ",
            "Francophone": "Non"
        },
        {
            "id": 60,
            "Pays": "Estonie ",
            "Francophone": "Non"
        },
        {
            "id": 61,
            "Pays": "États-Unis ",
            "Francophone": "Non"
        },
        {
            "id": 62,
            "Pays": "Éthiopie ",
            "Francophone": "Non"
        },
        {
            "id": 63,
            "Pays": "Fidji ",
            "Francophone": "Non"
        },
        {
            "id": 64,
            "Pays": "Finlande ",
            "Francophone": "Non"
        },
        {
            "id": 66,
            "Pays": "Gabon ",
            "Francophone": "Oui"
        },
        {
            "id": 67,
            "Pays": "Gambie ",
            "Francophone": "Non"
        },
        {
            "id": 68,
            "Pays": "Géorgie ",
            "Francophone": "Non"
        },
        {
            "id": 69,
            "Pays": "Ghana ",
            "Francophone": "Non"
        },
        {
            "id": 70,
            "Pays": "Grèce ",
            "Francophone": "Non"
        },
        {
            "id": 71,
            "Pays": "Grenade ",
            "Francophone": "Non"
        },
        {
            "id": 72,
            "Pays": "Guatemala ",
            "Francophone": "Non"
        },
        {
            "id": 73,
            "Pays": "Guinée ",
            "Francophone": "Oui"
        },
        {
            "id": 74,
            "Pays": "Guinée-Bissau ",
            "Francophone": "Non"
        },
        {
            "id": 75,
            "Pays": "Guinée équatoriale ",
            "Francophone": "Oui"
        },
        {
            "id": 76,
            "Pays": "Guyana ",
            "Francophone": "Non"
        },
        {
            "id": 77,
            "Pays": "Haïti",
            "Francophone": "Oui"
        },
        {
            "id": 78,
            "Pays": "Honduras ",
            "Francophone": "Non"
        },
        {
            "id": 79,
            "Pays": "Hongrie ",
            "Francophone": "Non"
        },
        {
            "id": 80,
            "Pays": "Inde ",
            "Francophone": "Non"
        },
        {
            "id": 81,
            "Pays": "Indonésie ",
            "Francophone": "Non"
        },
        {
            "id": 82,
            "Pays": "Irak ",
            "Francophone": "Non"
        },
        {
            "id": 83,
            "Pays": "Iran ",
            "Francophone": "Non"
        },
        {
            "id": 84,
            "Pays": "Irlande ",
            "Francophone": "Non"
        },
        {
            "id": 85,
            "Pays": "Islande ",
            "Francophone": "Non"
        },
        {
            "id": 86,
            "Pays": "Israël",
            "Francophone": "Non"
        },
        {
            "id": 87,
            "Pays": "Italie ",
            "Francophone": "Non"
        },
        {
            "id": 88,
            "Pays": "Jamaïque ",
            "Francophone": "Non"
        },
        {
            "id": 89,
            "Pays": "Japon ",
            "Francophone": "Non"
        },
        {
            "id": 90,
            "Pays": "Jordanie ",
            "Francophone": "Non"
        },
        {
            "id": 91,
            "Pays": "Kazakhstan ",
            "Francophone": "Non"
        },
        {
            "id": 92,
            "Pays": "Kenya ",
            "Francophone": "Non"
        },
        {
            "id": 93,
            "Pays": "Kirghizstan ",
            "Francophone": "Non"
        },
        {
            "id": 94,
            "Pays": "Kiribati ",
            "Francophone": "Non"
        },
        {
            "id": 95,
            "Pays": "Kosovo ",
            "Francophone": "Non"
        },
        {
            "id": 96,
            "Pays": "Koweït ",
            "Francophone": "Non"
        },
        {
            "id": 97,
            "Pays": "Laos ",
            "Francophone": "Non"
        },
        {
            "id": 98,
            "Pays": "Lesotho ",
            "Francophone": "Non"
        },
        {
            "id": 99,
            "Pays": "Lettonie ",
            "Francophone": "Non"
        },
        {
            "id": 100,
            "Pays": "Liban ",
            "Francophone": "Non"
        },
        {
            "id": 101,
            "Pays": "Liberia ",
            "Francophone": "Non"
        },
        {
            "id": 102,
            "Pays": "Libye ",
            "Francophone": "Non"
        },
        {
            "id": 103,
            "Pays": "Liechtenstein ",
            "Francophone": "Non"
        },
        {
            "id": 104,
            "Pays": "Lituanie ",
            "Francophone": "Non"
        },
        {
            "id": 105,
            "Pays": "Luxembourg ",
            "Francophone": "Oui"
        },
        {
            "id": 106,
            "Pays": "Macédoine du Nord",
            "Francophone": "Non"
        },
        {
            "id": 107,
            "Pays": "Madagascar",
            "Francophone": "Oui"
        },
        {
            "id": 108,
            "Pays": "Malaisie ",
            "Francophone": "Non"
        },
        {
            "id": 109,
            "Pays": "Malawi ",
            "Francophone": "Non"
        },
        {
            "id": 110,
            "Pays": "Maldives ",
            "Francophone": "Non"
        },
        {
            "id": 111,
            "Pays": "Mali ",
            "Francophone": "Oui"
        },
        {
            "id": 112,
            "Pays": "Malte",
            "Francophone": "Non"
        },
        {
            "id": 113,
            "Pays": "Maroc ",
            "Francophone": "Oui"
        },
        {
            "id": 114,
            "Pays": "Marshall ",
            "Francophone": "Non"
        },
        {
            "id": 115,
            "Pays": "Maurice",
            "Francophone": "Non"
        },
        {
            "id": 116,
            "Pays": "Mauritanie ",
            "Francophone": "Non"
        },
        {
            "id": 117,
            "Pays": "Mexique ",
            "Francophone": "Non"
        },
        {
            "id": 118,
            "Pays": "Micronésie ",
            "Francophone": "Non"
        },
        {
            "id": 119,
            "Pays": "Moldavie ",
            "Francophone": "Non"
        },
        {
            "id": 120,
            "Pays": "Monaco",
            "Francophone": "Oui"
        },
        {
            "id": 121,
            "Pays": "Mongolie ",
            "Francophone": "Non"
        },
        {
            "id": 122,
            "Pays": "Monténégro ",
            "Francophone": "Non"
        },
        {
            "id": 123,
            "Pays": "Mozambique ",
            "Francophone": "Non"
        },
        {
            "id": 124,
            "Pays": "Namibie ",
            "Francophone": "Non"
        },
        {
            "id": 125,
            "Pays": "Nauru",
            "Francophone": "Non"
        },
        {
            "id": 126,
            "Pays": "Népal ",
            "Francophone": "Non"
        },
        {
            "id": 127,
            "Pays": "Nicaragua ",
            "Francophone": "Non"
        },
        {
            "id": 128,
            "Pays": "Niger ",
            "Francophone": "Oui"
        },
        {
            "id": 129,
            "Pays": "Nigeria ",
            "Francophone": "Non"
        },
        {
            "id": 130,
            "Pays": "Norvège ",
            "Francophone": "Non"
        },
        {
            "id": 131,
            "Pays": "Nouvelle-Zélande ",
            "Francophone": "Non"
        },
        {
            "id": 132,
            "Pays": "Oman",
            "Francophone": "Non"
        },
        {
            "id": 133,
            "Pays": "Ouganda ",
            "Francophone": "Non"
        },
        {
            "id": 134,
            "Pays": "Ouzbékistan ",
            "Francophone": "Non"
        },
        {
            "id": 135,
            "Pays": "Pakistan ",
            "Francophone": "Non"
        },
        {
            "id": 136,
            "Pays": "Palaos ",
            "Francophone": "Non"
        },
        {
            "id": 137,
            "Pays": "Panama ",
            "Francophone": "Non"
        },
        {
            "id": 138,
            "Pays": "Papouasie-Nouvelle-Guinée ",
            "Francophone": "Non"
        },
        {
            "id": 139,
            "Pays": "Paraguay ",
            "Francophone": "Non"
        },
        {
            "id": 140,
            "Pays": "Pays-Bas ",
            "Francophone": "Non"
        },
        {
            "id": 141,
            "Pays": "Pérou ",
            "Francophone": "Non"
        },
        {
            "id": 142,
            "Pays": "Philippines ",
            "Francophone": "Non"
        },
        {
            "id": 143,
            "Pays": "Pologne ",
            "Francophone": "Non"
        },
        {
            "id": 144,
            "Pays": "Portugal ",
            "Francophone": "Non"
        },
        {
            "id": 145,
            "Pays": "Qatar ",
            "Francophone": "Non"
        },
        {
            "id": 146,
            "Pays": "Roumanie ",
            "Francophone": "Non"
        },
        {
            "id": 147,
            "Pays": "Royaume-Uni ",
            "Francophone": "Non"
        },
        {
            "id": 148,
            "Pays": "Russie ",
            "Francophone": "Non"
        },
        {
            "id": 149,
            "Pays": "Rwanda ",
            "Francophone": "Oui"
        },
        {
            "id": 150,
            "Pays": "Saint-Christophe-et-Niévès",
            "Francophone": "Non"
        },
        {
            "id": 151,
            "Pays": "Sainte-Lucie",
            "Francophone": "Non"
        },
        {
            "id": 152,
            "Pays": "Saint-Marin",
            "Francophone": "Non"
        },
        {
            "id": 153,
            "Pays": "Saint-Siège ",
            "Francophone": "Non"
        },
        {
            "id": 154,
            "Pays": "Saint-Vincent-et-les-Grenadines",
            "Francophone": "Non"
        },
        {
            "id": 155,
            "Pays": "Salomon ",
            "Francophone": "Non"
        },
        {
            "id": 156,
            "Pays": "Salvador ",
            "Francophone": "Non"
        },
        {
            "id": 157,
            "Pays": "Samoa ",
            "Francophone": "Non"
        },
        {
            "id": 158,
            "Pays": "Sao Tomé-et-Principe",
            "Francophone": "Non"
        },
        {
            "id": 159,
            "Pays": "Sénégal ",
            "Francophone": "Oui"
        },
        {
            "id": 160,
            "Pays": "Serbie ",
            "Francophone": "Non"
        },
        {
            "id": 161,
            "Pays": "Seychelles ",
            "Francophone": "Oui"
        },
        {
            "id": 162,
            "Pays": "Sierra Leone ",
            "Francophone": "Non"
        },
        {
            "id": 163,
            "Pays": "Singapour",
            "Francophone": "Non"
        },
        {
            "id": 164,
            "Pays": "Slovaquie ",
            "Francophone": "Non"
        },
        {
            "id": 165,
            "Pays": "Slovénie ",
            "Francophone": "Non"
        },
        {
            "id": 166,
            "Pays": "Somalie ",
            "Francophone": "Non"
        },
        {
            "id": 167,
            "Pays": "Soudan ",
            "Francophone": "Non"
        },
        {
            "id": 168,
            "Pays": "Soudan du Sud ",
            "Francophone": "Non"
        },
        {
            "id": 169,
            "Pays": "Sri Lanka ",
            "Francophone": "Non"
        },
        {
            "id": 170,
            "Pays": "Suède ",
            "Francophone": "Non"
        },
        {
            "id": 171,
            "Pays": "Suisse ",
            "Francophone": "Oui"
        },
        {
            "id": 172,
            "Pays": "Suriname ",
            "Francophone": "Non"
        },
        {
            "id": 173,
            "Pays": "Swaziland ",
            "Francophone": "Non"
        },
        {
            "id": 174,
            "Pays": "Syrie ",
            "Francophone": "Non"
        },
        {
            "id": 175,
            "Pays": "Tadjikistan ",
            "Francophone": "Non"
        },
        {
            "id": 176,
            "Pays": "Tanzanie ",
            "Francophone": "Non"
        },
        {
            "id": 177,
            "Pays": "Tchad ",
            "Francophone": "Oui"
        },
        {
            "id": 178,
            "Pays": "République Tchèque",
            "Francophone": "Non"
        },
        {
            "id": 179,
            "Pays": "Thaïlande ",
            "Francophone": "Non"
        },
        {
            "id": 180,
            "Pays": "Timor oriental ",
            "Francophone": "Non"
        },
        {
            "id": 181,
            "Pays": "Togo ",
            "Francophone": "Oui"
        },
        {
            "id": 182,
            "Pays": "Tonga ",
            "Francophone": "Non"
        },
        {
            "id": 183,
            "Pays": "Trinité-et-Tobago ",
            "Francophone": "Non"
        },
        {
            "id": 184,
            "Pays": "Tunisie ",
            "Francophone": "Oui"
        },
        {
            "id": 185,
            "Pays": "Turkménistan ",
            "Francophone": "Non"
        },
        {
            "id": 186,
            "Pays": "Turquie ",
            "Francophone": "Non"
        },
        {
            "id": 187,
            "Pays": "Tuvalu ",
            "Francophone": "Non"
        },
        {
            "id": 188,
            "Pays": "Ukraine ",
            "Francophone": "Non"
        },
        {
            "id": 189,
            "Pays": "Uruguay ",
            "Francophone": "Non"
        },
        {
            "id": 190,
            "Pays": "Vanuatu ",
            "Francophone": "Oui"
        },
        {
            "id": 191,
            "Pays": "Venezuela ",
            "Francophone": "Non"
        },
        {
            "id": 192,
            "Pays": "Vietnam ",
            "Francophone": "Non"
        },
        {
            "id": 193,
            "Pays": "Yémen ",
            "Francophone": "Non"
        },
        {
            "id": 194,
            "Pays": "Zambie ",
            "Francophone": "Non"
        },
        {
            "id": 195,
            "Pays": "Zimbabwe ",
            "Francophone": "Non"
        }
    ]
}