{
    "$schema": "http:\/\/json-schema.org\/draft-04\/schema#",
    "type": "object",
    "title": "droits-succession",
    "description": "<p>Éléments de calcul des droits de succession<\/p>",
    "properties": {
        "lien_parente": {
            "type": "array",
            "title": "Liens de parenté",
            "description": "<p>Liens de parenté<\/p>",
            "items": {
                "type": "object",
                "properties": {
                    "id": {
                        "type": "integer",
                        "title": "id [primarykey:1, autoincrement:17, type:integer]",
                        "description": "Identifiant interne"
                    },
                    "lien_parente": {
                        "type": "string",
                        "title": "Lien de parenté [type:text]",
                        "description": "<p>Lien de parenté<\/p>"
                    },
                    "degre_parente": {
                        "type": "integer",
                        "title": "Degré de parenté [type:integer]",
                        "description": "<p>Degré de parenté<\/p>"
                    },
                    "ligne_familiale": {
                        "type": "integer",
                        "title": "Ligne familiale [type:integer]",
                        "description": "<p>Ligne familiale (0 = collatérale, 1 = directe)<\/p>"
                    },
                    "abattement": {
                        "type": "number",
                        "title": "Abattement [type:money]",
                        "description": "<p>Abattement<\/p>"
                    },
                    "OrdreAffichage": {
                        "type": "integer",
                        "title": "Ordre affichage [type:integer]",
                        "description": ""
                    }
                },
                "required": [
                    "id",
                    "lien_parente",
                    "degre_parente",
                    "ligne_familiale"
                ]
            }
        },
        "bareme": {
            "type": "array",
            "title": "Barème des droits de succession",
            "description": "<p>Barème des droits de succession<\/p>",
            "items": {
                "type": "object",
                "properties": {
                    "id": {
                        "type": "integer",
                        "title": "id [primarykey:1, autoincrement:13, type:integer]",
                        "description": "Identifiant interne"
                    },
                    "ligne_familiale": {
                        "type": "integer",
                        "title": "Ligne familiale [type:integer]",
                        "description": "<p>Ligne familiale<\/p>"
                    },
                    "debut_degre": {
                        "type": "integer",
                        "title": "Borne inférieure du degré de parenté [type:integer]",
                        "description": "<p>Borne inférieure du degré de parenté (incluse)<\/p>"
                    },
                    "fin_degre": {
                        "type": "integer",
                        "title": "Borne supérieure du degré de parenté [type:integer]",
                        "description": "<p>Borne supérieure du degré de parenté (incluse)<\/p>"
                    },
                    "debut_tranche": {
                        "type": "number",
                        "title": "Borne inférieure de la tranche [type:money]",
                        "description": "<p>Borne inférieure de la tranche sur l'actif net (incluse)<\/p>"
                    },
                    "fin_tranche": {
                        "type": "number",
                        "title": "Borne supérieure de la tranche [type:money]",
                        "description": "<p>Borne supérieure de la tranche sur l'actif net (incluse)<\/p>"
                    },
                    "bareme": {
                        "type": "number",
                        "title": "Barème [type:percent]",
                        "description": "<p>Barème<\/p>"
                    }
                },
                "required": [
                    "id",
                    "ligne_familiale",
                    "debut_degre",
                    "fin_degre",
                    "debut_tranche",
                    "bareme"
                ]
            }
        },
        "bareme2": {
            "type": "array",
            "title": "Barème progressif des droits de succession",
            "description": "<p>Barème progressif des droits de succession<\/p>",
            "items": {
                "type": "object",
                "properties": {
                    "id": {
                        "type": "integer",
                        "title": "id [primarykey:1, autoincrement:13, type:integer]",
                        "description": "Identifiant interne"
                    },
                    "ligne_familiale": {
                        "type": "integer",
                        "title": "Ligne familiale [type:integer]",
                        "description": "<p>Ligne familiale : 1 = ligne directe, 0 = ligne collatérale<\/p>"
                    },
                    "debut_degre": {
                        "type": "integer",
                        "title": "Borne inférieure du degré de parenté [type:integer]",
                        "description": "<p>Borne inférieure du degré de parenté (incluse)<\/p>"
                    },
                    "fin_degre": {
                        "type": "integer",
                        "title": "Borne supérieure du degré de parenté [type:integer]",
                        "description": "<p>Borne supérieure du degré de parenté (incluse)<\/p>"
                    },
                    "tranche": {
                        "type": "integer",
                        "title": "Numéro de la tranche [type:integer]",
                        "description": "<p>Numéro de la tranche<\/p>"
                    },
                    "part_taxable": {
                        "type": "number",
                        "title": "Part taxable [type:money]",
                        "description": "<p>Part taxable<\/p>"
                    },
                    "bareme": {
                        "type": "number",
                        "title": "Pourcentage des droits de succession [type:percent]",
                        "description": "<p>Pourcentage des droits de succession<\/p>"
                    }
                },
                "required": [
                    "id",
                    "ligne_familiale",
                    "debut_degre",
                    "fin_degre",
                    "tranche",
                    "bareme"
                ]
            }
        },
        "abattementsDonationParente": {
            "type": "array",
            "title": "Abattements donation selon parenté",
            "description": "",
            "items": {
                "type": "object",
                "properties": {
                    "id": {
                        "type": "integer",
                        "title": "id [primarykey:1, autoincrement:14, type:integer]",
                        "description": "Identifiant interne"
                    },
                    "lienParente": {
                        "type": "string",
                        "title": "Lien de parenté [type:text]",
                        "description": "<p>Lien de parenté<\/p>"
                    },
                    "degreParente": {
                        "type": "integer",
                        "title": "Degré de parenté [type:integer]",
                        "description": "<p>Degré de parenté<\/p>"
                    },
                    "ligneFamiliale": {
                        "type": "integer",
                        "title": "Ligne familiale [type:integer]",
                        "description": "<p>Ligne familiale<\/p>"
                    },
                    "abattement": {
                        "type": "number",
                        "title": "Abattement [type:money]",
                        "description": "<p>Abattement<\/p>"
                    }
                },
                "required": [
                    "id",
                    "lienParente",
                    "degreParente",
                    "ligneFamiliale",
                    "abattement"
                ]
            }
        }
    },
    "required": [
        "lien_parente",
        "bareme",
        "bareme2",
        "abattementsDonationParente"
    ]
}