{
    "plafondHoraire": [
        {
            "id": 1,
            "debutPeriode": "2011-01-01",
            "finPeriode": "2011-12-31",
            "plafond": 22,
            "source": "arrêté du 26 novembre 2010 publié au Journal officiel du 28 novembre 2010."
        },
        {
            "id": 2,
            "debutPeriode": "2012-01-01",
            "finPeriode": "2012-12-31",
            "plafond": 23,
            "source": "arrêté du 30 décembre 2011 publié au Journal officiel du 31 décembre 2011."
        },
        {
            "id": 3,
            "debutPeriode": "2013-01-01",
            "finPeriode": "2013-12-31",
            "plafond": 23,
            "source": "arrêté du 12 décembre 2012 publié au Journal officiel du 21 décembre 2012."
        },
        {
            "id": 4,
            "debutPeriode": "2014-01-01",
            "finPeriode": "2014-12-31",
            "plafond": 23,
            "source": " arrêté du 7 novembre 2013 publié au Journal officiel du 19 novembre 2013."
        },
        {
            "id": 5,
            "debutPeriode": "2015-01-01",
            "finPeriode": "2015-12-31",
            "plafond": 24,
            "source": "arrêté du 26 novembre 2014 publié au Journal officiel du 9 décembre 2014."
        },
        {
            "id": 6,
            "debutPeriode": "2016-01-01",
            "finPeriode": "2016-12-31",
            "plafond": 24,
            "source": "arrêté du 17 décembre 2015 publié au Journal officiel du 24 décembre 2015."
        },
        {
            "id": 7,
            "debutPeriode": "2017-01-01",
            "finPeriode": "2017-12-31",
            "plafond": 24,
            "source": "arrêté du 5 décembre 2016 publié au Journal officiel du 13 décembre 2016."
        },
        {
            "id": 8,
            "debutPeriode": "2018-01-01",
            "finPeriode": "2018-12-31",
            "plafond": 25,
            "source": "arrêté du 5 décembre 2017 publié au Journal officiel du 9 décembre 2017"
        },
        {
            "id": 9,
            "debutPeriode": "2019-01-01",
            "finPeriode": "2019-12-31",
            "plafond": 25,
            "source": "arrêté du 11 décembre 2018 portant fixation du plafond de la sécurité sociale pour 2019"
        }
    ],
    "TauxMinimal": [
        {
            "id": 1,
            "debutPeriode": "1900-01-01",
            "finPeriode": "2014-11-30",
            "taux": 12.5
        },
        {
            "id": 2,
            "debutPeriode": "2014-12-01",
            "finPeriode": "2014-12-31",
            "taux": 13.75
        },
        {
            "id": 3,
            "debutPeriode": "2015-01-01",
            "finPeriode": "2015-08-31",
            "taux": 13.75
        },
        {
            "id": 4,
            "debutPeriode": "2015-09-01",
            "finPeriode": "2019-12-31",
            "taux": 15
        }
    ]
}