{
    "$schema": "http:\/\/json-schema.org\/draft-04\/schema#",
    "type": "object",
    "title": "Regroupement",
    "description": "",
    "databaseName": "Regroupement.db",
    "databaseLabel": "Regroupement familial",
    "databaseDatasimulator": "",
    "databaseDatanextchange": "",
    "databaseDatauserchange": "",
    "properties": {
        "Nationalite": {
            "type": "array",
            "title": "Nationalité",
            "description": "",
            "items": {
                "type": "object",
                "properties": {
                    "id": {
                        "type": "integer",
                        "title": "id [primarykey:1, autoincrement:195, type:integer]",
                        "description": "Identifiant interne"
                    },
                    "Pays": {
                        "type": "string",
                        "title": "Pays [type:text]",
                        "description": ""
                    },
                    "EEE": {
                        "type": "string",
                        "title": "Europe [type:text]",
                        "description": ""
                    },
                    "Francophone": {
                        "type": "string",
                        "title": "Francophone [type:text]",
                        "description": ""
                    }
                },
                "required": [
                    "id",
                    "Pays",
                    "EEE",
                    "Francophone"
                ]
            }
        }
    },
    "required": [
        "Nationalite"
    ]
}