{
    "$schema": "http:\/\/json-schema.org\/draft-04\/schema#",
    "type": "object",
    "title": "zones-tendues",
    "description": "<p>Liste des zones tendues ou très tendues<\/p>",
    "properties": {
        "zonestendues": {
            "type": "array",
            "title": "Liste des villes en zone tendue ou très tendue",
            "description": "<p>Liste des villes en zone tendue ou très tendue<\/p>",
            "items": {
                "type": "object",
                "properties": {
                    "id": {
                        "type": "integer",
                        "title": "id [primarykey:1, autoincrement:6074, type:integer]",
                        "description": "Identifiant interne"
                    },
                    "codeInsee": {
                        "type": "string",
                        "title": "Code Insee [type:text]",
                        "description": "<p>Code Insee<\/p>"
                    },
                    "codePostal": {
                        "type": "string",
                        "title": "Code postal [type:text]",
                        "description": "<p>Code postal<\/p>"
                    },
                    "codeDep": {
                        "type": "string",
                        "title": "Code département [type:text]",
                        "description": "<p>Code département<\/p>"
                    },
                    "commune": {
                        "type": "string",
                        "title": "Nom de la commune [type:text]",
                        "description": "<p>Nom de la commune<\/p>"
                    },
                    "tension": {
                        "type": "integer",
                        "title": "Code tension [type:integer]",
                        "description": "<p>Code tension (1 = tendu, 2 = très tendu)<\/p>"
                    }
                },
                "required": [
                    "id",
                    "codeInsee",
                    "codeDep",
                    "commune",
                    "tension"
                ]
            }
        }
    },
    "required": [
        "zonestendues"
    ]
}